{
  "images" : [
    {
      "idiom" : "universal",
      "filename" : "iconfinder_pin_293694-2.png",
      "scale" : "1x"
    },
    {
      "idiom" : "universal",
      "filename" : "iconfinder_pin_293694-1.png",
      "scale" : "2x"
    },
    {
      "idiom" : "universal",
      "filename" : "iconfinder_pin_293694.png",
      "scale" : "3x"
    }
  ],
  "info" : {
    "version" : 1,
    "author" : "xcode"
  }
}